{
  "data": {
    "type": "Spawn"
  },
  "textures": [
    {
      "name": "shopman.png"
    },
    {
      "name": "shopman2.png"
    },
    {
      "name": "shopman3.png"
    },
    {
      "name": "shopman4.png"
    },
    {
      "name": "shopman5.png"
    },
    {
      "name": "shoplady.png"
    },
    {
      "name": "shoplady2.png"
    },
    {
      "name": "shoplady3.png"
    },
    {
      "name": "shoplady4.png"
    },
    {
      "name": "shopsecondman.png"
    }
  ],
  "names": [
    {
      "name": "Charles"
    },
    {
      "name": "Eito"
    },
    {
      "name": "Mr. Benson"
    },
    {
      "name": "Mr. Wong"
    },
    {
      "name": "James"
    },
    {
      "name": "Digby"
    },
    {
      "name": "Janet"
    },
    {
      "name": "Sally"
    },
    {
      "name": "Suki"
    },
    {
      "name": "Mrs. Hammersmith"
    },
    {
      "name": "Mrs. Finnegan"
    },
    {
      "name": "Mr. Prendergast"
    },
    {
      "name": "Mrs. Finnegan"
    }
  ],
  "chat": [
    {
      "hello": "Welcome to the Export Shop. I hope we can make a deal!",
      "goodbye": "See you next time."
    },
    {
      "hello": "Hello, welcome to the Export Shop. How may I help you?",
      "goodbye": "Thank you for your trade. Have a nice day."
    },
    {
      "hello": "Hello there! Welcome to the Export Shop. I buy only the finest items.",
      "goodbye": "Thank you for your trade."
    },
    {
      "hello": "Welcome to the Export Shop. Nice day for business, isn't it?",
      "goodbye": "Come back soon, won't you?"
    },
    {
      "hello": "Hello there, welcome to the Export Shop!",
      "goodbye": "Come see us again, won't you?"
    },
    {
      "hello": "Hey there, welcome to the Export Shop. Have anything special for us?",
      "goodbye": "Okay, see ya next time."
    },
    {
      "hello": "How are you? Welcome to the Export Shop! We're eager to trade with you!",
      "goodbye": "Ciao, my friend. Come back anytime."
    },
    {
      "hello": "Hello, check out the Export Shop! We purchase all useful products and materials.",
      "goodbye": "Come back again soon, okay?"
    },
    {
      "hello": "Hi, looking for the best place to sell your goods? Well, you just found it!",
      "goodbye": "Leaving so soon? Well, make sure you come back even sooner!"
    },
    {
      "hello": "Hi, welcome to the Export Shop. Would you like any help?",
      "goodbye": "Bye then. Visit us again soon."
    },
    {
      "hello": "Hi, how are you? Welcome to the Export Shop. Just call out if you need any help.",
      "goodbye": "Nice to see you. Have a great day!"
    },
    {
      "hello": "Hello, may I help you start a transaction?",
      "goodbye": "Thank you for your custom. We look forward to serving you again."
    },
    {
      "hello": "Welcome to the Export Shop.",
      "goodbye": "Bye! Come and see us again soon!"
    },
    {
      "hello": "Welcome to the Export Shop. I am sure the quality of your goods will please us.",
      "goodbye": "Delighted to have met you. Good day."
    },
    {
      "hello": "Hello, and welcome to the Export Shop. We purchase an exciting range of Luxury Goods.",
      "goodbye": "Thank you for your business."
    },
    {
      "hello": "Bienvenu! Our Export Shop purchases only the finest goods.",
      "goodbye": "It was indeed a privilege to do business with you."
    },
    {
      "hello": "Welcome to the Export Shop. Enjoy browsing our luxury range.",
      "goodbye": "Good day to you, and thank you for your trade."
    }
  ],
  "items": [
    {
      "name": "Minecraft_Wheat",
      "multi": 1.0,
      "rarity": 1.0,
      "variation": false
    },
    {
      "name": "Minecraft_Hay_Bale",
      "multi": 1.0,
      "rarity": 1.0,
      "variation": false
    },
    {
      "name": "Minecraft_Potato",
      "multi": 1.0,
      "rarity": 1.0,
      "variation": false
    },
    {
      "name": "Minecraft_Baked_Potato",
      "multi": 1.0,
      "rarity": 1.0,
      "variation": false
    },
    {
      "name": "Minecraft_Carrot",
      "multi": 1.0,
      "rarity": 1.0,
      "variation": false
    },
    {
      "name": "Minecraft_Sugar_Cane",
      "multi": 1.0,
      "rarity": 1.0,
      "variation": false
    },
    {
      "name": "Minecraft_Pumpkin",
      "multi": 1.0,
      "rarity": 1.0,
      "variation": false
    },
    {
      "name": "Minecraft_Poison_Potato",
      "multi": 1.0,
      "rarity": 1.0,
      "variation": false
    },
    {
      "name": "Minecraft_Melon",
      "multi": 1.0,
      "rarity": 1.0,
      "variation": false
    },
    {
      "name": "Minecraft_Melon_Block",
      "multi": 1.0,
      "rarity": 1.0,
      "variation": false
    },
    {
      "name": "Minecraft_Cookie",
      "multi": 1.0,
      "rarity": 1.0,
      "variation": false
    },
    {
      "name": "Minecraft_Pumpkin_Pie",
      "multi": 1.0,
      "rarity": 1.0,
      "variation": false
    },
    {
      "name": "Minecraft_Cake",
      "multi": 1.0,
      "rarity": 1.0,
      "variation": false
    },
    {
      "name": "Minecraft_Bread",
      "multi": 1.0,
      "rarity": 1.0,
      "variation": false
    },
    {
      "name": "Minecraft_Pork",
      "multi": 1.0,
      "rarity": 1.0,
      "variation": false
    },
    {
      "name": "Minecraft_Cooked_Pork",
      "multi": 1.0,
      "rarity": 1.0,
      "variation": false
    },
    {
      "name": "Minecraft_Beef",
      "multi": 1.0,
      "rarity": 1.0,
      "variation": false
    },
    {
      "name": "Minecraft_Cooked_Beef",
      "multi": 1.0,
      "rarity": 1.0,
      "variation": false
    },
    {
      "name": "Minecraft_Chicken",
      "multi": 1.0,
      "rarity": 1.0,
      "variation": false
    },
    {
      "name": "Minecraft_Cooked_Chicken",
      "multi": 1.0,
      "rarity": 1.0,
      "variation": false
    },
    {
      "name": "Minecraft_Apple",
      "multi": 1.0,
      "rarity": 1.0,
      "variation": false
    },
    {
      "name": "BoP_Rice_Bowl",
      "multi": 1.0,
      "rarity": 1.0,
      "variation": false
    },
    {
      "name": "BoP_Veggie_Salad",
      "multi": 1.0,
      "rarity": 1.0,
      "variation": false
    },
    {
      "name": "BoP_Fruit_Salad",
      "multi": 1.0,
      "rarity": 1.0,
      "variation": false
    }
  ]
}
